
 +0.000 +0.138 -3.174 -0.025 +23.276
 +0.000 +0.289 -0.732 +0.044 +23.460
 +0.000 +0.367 -2.075 -0.001 +23.534
 +0.000 +0.509 -0.916 +0.014 +23.607
 +0.000 +0.567 -4.272 +0.047 +23.645
 +0.000 +0.665 -6.714 +0.032 +23.720
 +0.000 +0.692 -4.150 -0.030 +23.800
 +0.000 +0.804 -7.263 +0.021 +23.836
 +0.000 +0.804 -7.935 +0.079 +23.909
 +5.814 +0.996 -13.672 +0.049 +24.018
 +7.236 +0.972 +19.470 -0.077 +24.098
 +7.236 +1.066 +19.470 +0.044 +24.137
 +7.236 +1.048 +25.208 -0.021 +24.210
 +7.362 +1.344 +34.546 +0.094 +24.442
 +10.494 +1.436 +53.833 +0.271 +24.750
 +10.494 +1.581 +53.894 +0.212 +24.823
 +10.638 +1.477 +63.599 +0.162 +24.936
 +0.000 +1.743 +44.800 -0.012 +25.256
 +0.000 +1.772 -20.935 +0.034 +25.368
 +0.000 +1.794 +0.916 +0.023 +25.686
 +0.000 +1.884 -14.282 +0.021 +25.724
 +0.000 +1.897 -5.371 +0.020 +25.876
 -10.638 +1.934 -85.693 -0.362 +25.990
 -9.360 +3.218 -58.716 -0.053 +26.031
 -6.660 +1.976 -129.089 -0.693 +26.068
 +0.000 +1.962 -105.652 -0.158 +26.186
 +0.000 +1.762 -15.991 +0.069 +26.295
 +5.526 +1.766 -10.925 -0.114 +26.334
 +13.608 +1.910 -7.507 +0.023 +26.374
 +15.732 +1.924 +111.572 +0.428 +26.488
 +16.578 +1.766 +121.948 +0.373 +26.606
 +18.000 +1.570 +124.817 +0.323 +26.825
 +18.000 +1.534 +110.657 +0.313 +26.964
 +18.000 +1.312 +100.037 +0.252 +27.075
 +18.000 +1.448 +101.074 +0.310 +27.188
 +18.000 +1.550 +123.108 +0.340 +27.331
 +18.000 +1.547 +129.272 +0.308 +27.454
 +18.000 +1.619 +134.155 +0.537 +27.565
 +18.000 +1.674 +117.615 +0.386 +27.643
 +18.000 +1.650 +131.409 +0.354 +27.683
 +11.898 +1.857 +131.409 +0.334 +27.810
 +5.238 +1.943 +123.230 +0.422 +27.845
 +0.000 +1.962 +37.903 -0.346 +27.920
 +10.206 +1.838 -30.884 -0.021 +28.031
 +16.164 +2.024 +55.908 +0.266 +28.147
 +16.290 +2.144 +115.662 +0.453 +28.222
 +17.154 +1.894 +127.258 +0.350 +28.265
 +17.154 +2.064 +124.695 +0.499 +28.302
 +0.000 +3.770 +36.316 -0.300 +28.550
 +0.000 +2.059 -26.794 -0.007 +28.668
 -5.382 +2.083 -10.620 -0.104 +28.827
 -8.640 +2.176 -104.004 -0.550 +29.021
 -10.206 +2.381 -116.821 -0.322 +29.058
 -7.092 +2.384 -129.211 -0.552 +29.145
 +0.000 +2.183 -30.334 +0.134 +29.254
 +6.660 +2.212 -17.395 -0.073 +29.403
 +16.866 +2.205 +76.965 +0.585 +29.522
 +16.866 +2.406 +136.597 +0.601 +29.557
 +16.578 +2.163 +151.672 +0.587 +29.634
 +15.444 +2.374 +135.925 +0.492 +29.752
 +0.000 +2.161 +121.399 +0.500 +29.867
 +0.000 +2.415 +9.094 -0.390 +29.944
 -18.000 +2.394 -204.224 -0.961 +30.172
 -17.856 +2.129 -235.229 -0.822 +30.289
 +0.000 +2.330 -187.012 -1.150 +30.324
 +14.742 +2.079 +4.028 +0.040 +30.453
 +18.000 +1.941 +141.785 +0.514 +30.644
 +18.000 +2.122 +148.071 +0.618 +30.679
 +18.000 +2.124 +128.967 +0.312 +30.799
 +18.000 +1.678 +143.066 +0.473 +30.906
 +18.000 +1.842 +127.930 +0.424 +30.978
 +18.000 +1.748 +134.399 +0.317 +31.015
 +14.886 +1.464 +122.620 +0.321 +31.142
 -15.732 +1.365 -65.613 -0.219 +31.330
 -18.000 +0.993 -116.577 -0.184 +31.527
 +0.000 +3.700 -91.675 -0.055 +31.634
 +0.000 +0.259 -2.197 -0.002 +32.362
 +0.000 +0.259 -1.343 +0.030 +32.398
