^C:\USERS\VLADFUX\DOCUMENTS\PROJECTS\SIRIUS\SERIALDUALSHOCK\SERIALDUALSHOCK\GAMEPAD.CPP
C:\USERS\VLADFUX\DOCUMENTS\PROJECTS\SIRIUS\SERIALDUALSHOCK\SERIALDUALSHOCK\X64\DEBUG\VC140.PDB
^C:\USERS\VLADFUX\DOCUMENTS\PROJECTS\SIRIUS\SERIALDUALSHOCK\SERIALDUALSHOCK\RS232.CPP
C:\USERS\VLADFUX\DOCUMENTS\PROJECTS\SIRIUS\SERIALDUALSHOCK\SERIALDUALSHOCK\X64\DEBUG\VC140.PDB
^C:\USERS\VLADFUX\DOCUMENTS\PROJECTS\ROBORACE\SERIALDUALSHOCK\SERIALDUALSHOCK\GAMEPAD.CPP|C:\USERS\VLADFUX\DOCUMENTS\PROJECTS\ROBORACE\SERIALDUALSHOCK\SERIALDUALSHOCK\MAIN.CPP|C:\USERS\VLADFUX\DOCUMENTS\PROJECTS\ROBORACE\SERIALDUALSHOCK\SERIALDUALSHOCK\RS232.CPP
C:\USERS\VLADFUX\DOCUMENTS\PROJECTS\ROBORACE\SERIALDUALSHOCK\SERIALDUALSHOCK\X64\DEBUG\VC140.PDB
C:\USERS\VLADFUX\DOCUMENTS\PROJECTS\ROBORACE\SERIALDUALSHOCK\SERIALDUALSHOCK\X64\DEBUG\VC140.IDB
C:\USERS\VLADFUX\DOCUMENTS\PROJECTS\ROBORACE\SERIALDUALSHOCK\SERIALDUALSHOCK\X64\DEBUG\GAMEPAD.OBJ
C:\USERS\VLADFUX\DOCUMENTS\PROJECTS\ROBORACE\SERIALDUALSHOCK\SERIALDUALSHOCK\X64\DEBUG\MAIN.OBJ
C:\USERS\VLADFUX\DOCUMENTS\PROJECTS\ROBORACE\SERIALDUALSHOCK\SERIALDUALSHOCK\X64\DEBUG\RS232.OBJ
^C:\USERS\VLADFUX\DOCUMENTS\PROJECTS\ROBORACE\SERIALDUALSHOCK\SERIALDUALSHOCK\GAMEPAD.CPP
C:\USERS\VLADFUX\DOCUMENTS\PROJECTS\ROBORACE\SERIALDUALSHOCK\SERIALDUALSHOCK\X64\DEBUG\VC140.PDB
^C:\USERS\VLADFUX\DOCUMENTS\PROJECTS\ROBORACE\SERIALDUALSHOCK\SERIALDUALSHOCK\MAIN.CPP
C:\USERS\VLADFUX\DOCUMENTS\PROJECTS\ROBORACE\SERIALDUALSHOCK\SERIALDUALSHOCK\X64\DEBUG\VC140.PDB
C:\USERS\VLADFUX\DOCUMENTS\PROJECTS\ROBORACE\SERIALDUALSHOCK\SERIALDUALSHOCK\X64\DEBUG\VC140.IDB
C:\USERS\VLADFUX\DOCUMENTS\PROJECTS\ROBORACE\SERIALDUALSHOCK\SERIALDUALSHOCK\X64\DEBUG\MAIN.OBJ
^C:\USERS\VLADFUX\DOCUMENTS\PROJECTS\ROBORACE\SERIALDUALSHOCK\SERIALDUALSHOCK\RS232.CPP
C:\USERS\VLADFUX\DOCUMENTS\PROJECTS\ROBORACE\SERIALDUALSHOCK\SERIALDUALSHOCK\X64\DEBUG\VC140.PDB
